…
# 2. Extract a tibble `length_sex_ring` of dimension 1216 x 4
#    which contains the `sex`, `diameter`, `height` and `rings` columns.
#    The dataset should be filtered for length strictly larger than 0.6 and
#    be sorted by increasing `sex` and decreasing `ring`.
#    To do that, you can use:
#      - `filter` to select rows that have `length` larger than 0.6.
#      - `arrange` to arrange data set by sex with first `"F"` then `"I"` and `"M"`,
#      and descending order of `ring`.
#      - `select` to select columns `sex`, `diameter`, `height` and `rings`.
#    To check your solution, `length_sex_ring` prints to:
#    # A tibble: 1,216 x 4
#    sex   diameter height rings
#    <chr>    <dbl>  <dbl> <dbl>
#    1 F        0.585  0.185    29
#    2 F        0.49   0.215    25
#    3 F        0.54   0.215    24
#    4 F        0.47   0.2      23
#    5 F        0.52   0.225    23
#    6 F        0.63   0.195    23
#    7 F        0.525  0.215    22
#    8 F        0.485  0.19     21
#    9 F        0.42   0.165    21
#    10 F        0.55   0.2      21
#    # … with 1,206 more rows
## Do not modify this line!
length_sex_ring <- abalone %>% filter(length>0.6) %>% select(sex,diameter,height,rings) %>% arrange(sex,desc(rings))


# 3. Extract a tibble `count_prop` of dimension 3 x 3,
#    which contains the `sex`, `count` and `prop` columns.
#    The dataset should be grouped by increasing `sex` with counted numbers
#    of each group. Then calculate the proportion of each count.
#    To do that, you can use
#      - `count` to count cases and make name as `count`.
#      - `mutate` to make a new column and name it `prop`, let `prop` be
#      `count / sum(count)`.
#    To check your solution, `count_prop` prints to:
#    # A tibble: 3 x 3
#    sex   count  prop
#    <chr> <int> <dbl>
#    1 F      1307 0.313
#    2 I      1342 0.321
#    # … with 1 more row
…
mean_max_min <-abalone %>% group_by(sex) %>%summarise(weight_mean = mean(shucked_weight), weight_max = max(shucked_weight),weight_min = min(shucked_weight))

# 5. Extract a tibble `filter_na_rename_select_everything` of dimension 2963 x 10,
#    which contains all columns.
#    The dataset should be flitered for diameter is NA or strictly greater than 0.36.
#    The column `X` should be renamed as `index`.
#    You should also rearrange `index`, `sex`, `length`, `diameter` and `rings`.
#    to first five columns and keep all the columns.
#    To do that, you can use
#      - `filter` to select rows that `diameter` is `na` or greater than 0.36.
#      - `rename` to rename `X` as `index`.
#      - `select` and `everything` to select all columns with first five columns
#      as `index`, `sex`, `length`, `diameter` and `rings`.
#    To check your solution, `filter_na_rename_select_everything` prints to:
#    # A tibble: 2,963 x 10
#    index sex   length diameter rings height whole_weight shucked_weight
#    <dbl> <chr>  <dbl>    <dbl> <dbl>  <dbl>        <dbl>          <dbl>
#    1      M      0.455    0.365    15  0.095        0.514          0.224
#    2      F      0.53     0.42      9  0.135        0.677          0.256
#    3      M      0.44     0.365    10  0.125        0.516          0.216
#    4      F      0.53     0.415    20  0.15         0.778          0.237
#    5      F      0.545    0.425    16  0.125        0.768          0.294
#    6      M      0.475    0.37      9  0.125        0.509          0.216
#    7      F      0.55     0.44     19  0.15         0.894          0.314
#    8      F      0.525    0.38     14  0.14         0.606          0.194
#    9      M      0.49     0.38     11  0.135        0.542          0.218
#    10     F      0.535    0.405    10  0.145        0.684          0.272
#    # … with 2,953 more rows, and 2 more variables: viscera_weight <dbl>,
#     shell_weight <dbl>
…
# 7. Extract a tibble `first_1000_rank` of dimension 1000 x 3,
#    which contains the `diameter`, `rings` and `rings_rank` columns, sorted
#    by ascending `rings_rank`, which is a column containing the rank
#    corresponding to the value of the `rings` variable.
#    The dataset should select the three columns and rank on the `rings`. Then
#    it should be filtered for first 1000 `rings_rank`.


#    To do that, you can use
#      - `select` to select out `diameter` and `rings`.
#      - `mutate` and `row_number` to rank `rings`. Name the new column as `rings_rank`.
#      - `filter` to filter out `rings_rank` less than or equal to `1000`.
#      - `arrange` by `rings_rank`.
#    To check your solution, `first_1000_rank` prints to:
#    # A tibble: 1,000 x 3
#    diameter rings rings_rank
#    <dbl> <dbl>      <int>
#    1    0.055     1          1
#    2    0.1       2          2
#    3    0.1       3          3
#    4    0.09      3          4
#    5    0.12      3          5
#    6    0.15      3          6
#    7    0.11      3          7
#    8    0.11      3          8
#    9   NA         3          9
#    10    0.15      3         10
#    # … with 990 more rows
…
#    To do this, you can use:
#    (1) `filter()` to select rows with `year` as `2016` and non-NA `life_expect`
#    and `gdp_percap` (hint: you can use `is.na()` to check for missing values).
#    (2) `dplyr::select()` to include only `country`, `gdp_percap`, `life_expect`,
#    `population` and `region` (side note: by doing `dplyr::`, we enforce the use
#    of `dplyr`'s `select` to resolve function conflicts with other packages such
#    as `MASS`).
#    To check your solution, `longevity` prints to:
#    # A tibble: 175 x 5
#       country              gdp_percap life_expect population region
#       <chr>                     <dbl>       <dbl>      <int> <chr>
#     1 United Arab Emirates     72400.        77.3    9269612 Middle East & North Africa
#     2 Afghanistan               1944.        63.7   34656032 South Asia
#     3 Antigua and Barbuda      22661.        76.4     100963 Latin America & Caribbean
#     4 Albania                  11540.        78.3    2876101 Europe & Central Asia
#     5 Armenia                   8833.        74.6    2924816 Europe & Central Asia
#     6 Angola                    6454.        61.5   28813463 Sub-Saharan Africa
#     7 Argentina                19940.        76.6   43847430 Latin America & Caribbean
#     8 Austria                  50552.        80.9    8731471 Europe & Central Asia
#     9 Australia                46012.        82.5   24210809 East Asia & Pacific
#    10 Azerbaijan               17257.        72.0    9757812 Europe & Central Asia
#    # … with 165 more rows
…
gdp_by_region <- nations %>%mutate('gdp')%>%group_by(region,year)%>%summarise(total_gdp=sum(gdp_percap*population/1000000000000,na.rm=TRUE))

#    To do this, you can use:
#    (1) `mutate()` to create a new column `gdp` to find the real GDP.
#    (2) `group_by()` to group data by `region` and `year`.
#    (3) `summarise()` to find the total real GDP in trillions of dollars
#    (hint: set `na.rm = TRUE` when taking sum since we may have NA's for `gdp`).
#    To check your solution, `gdp_by_region` prints to:
#    # A tibble: 189 x 3
#    # Groups:   region [7]
#       region               year total_gdp
#       <chr>               <int>     <dbl>
#     1 East Asia & Pacific  1990      5.59
#     2 East Asia & Pacific  1991      6.10
#     3 East Asia & Pacific  1992      6.57
#     4 East Asia & Pacific  1993      7.11
#     5 East Asia & Pacific  1994      7.71
#     6 East Asia & Pacific  1995      8.39
#     7 East Asia & Pacific  1996      9.09
#     8 East Asia & Pacific  1997      9.66
#     9 East Asia & Pacific  1998      9.75
#    10 East Asia & Pacific  1999     10.3
#    # … with 179 more rows
…
#    To do this, you can use:
#    (1) `gather()` to collect the six columns for `var`.
#    (2) `arrange()` to sort the result by ascending order of `id` and `trt`.
#    Alternatively, you can use `pivot_longer()`.
#    To check your solution, `act_gathered` prints to:
#    # A tibble: 60 x 4
#          id trt   var      score
#       <int> <chr> <chr>    <dbl>
#     1     1 cnt   work.T1 0.652
#     2     1 cnt   play.T1 0.865
#     3     1 cnt   talk.T1 0.536
#     4     1 cnt   work.T2 0.275
#     5     1 cnt   play.T2 0.354
#     6     1 cnt   talk.T2 0.0319
#     7     2 cnt   work.T1 0.568
#     8     2 cnt   play.T1 0.615
#     9     2 cnt   talk.T1 0.0931
#    10     2 cnt   work.T2 0.229
#    # … with 50 more rows
…
# 3. What is the issue now? Two variables are stored in a single column!
#    From `act_gathered`, extract a tibble `act_separated` of dimension 60 x 5
#    that contains the `id`, `trt`, `action`, `time` and `score` columns.
#    `action` and `time` are two new columns that are separated from
#    `act_gathered$var`.

act_separated<-act_gathered%>%separate(var,into=c('action','time'))


#    To do this, you can use `separate()` to separate `var` in `act_gathered`.
#    To check your solution, `act_separated` prints to:
#    # A tibble: 60 x 5
#          id trt   action time   score
#       <int> <chr> <chr>  <chr>  <dbl>
#     1     1 cnt   work   T1    0.652
#     2     1 cnt   play   T1    0.865
#     3     1 cnt   talk   T1    0.536
#     4     1 cnt   work   T2    0.275
#     5     1 cnt   play   T2    0.354
#     6     1 cnt   talk   T2    0.0319
#     7     2 cnt   work   T1    0.568
#     8     2 cnt   play   T1    0.615
#     9     2 cnt   talk   T1    0.0931
#    10     2 cnt   work   T2    0.229
#    # … with 50 more rows
…
#    To complete this, you can use:
#      - `filter_all` to filter out all the `NA` values.
#      - `filter` and `startsWith`.
#      - `select` to change the columns order into `wool`, `tension`, `breaks`.
#    Save your answer into a tibble `t1` which has 49 rows and 3 columns.
#    To check your solution, it should print to:
#    # A tibble: 49 x 3
#     wool  tension breaks
#     <chr> <chr>    <dbl>
#    1 A     L           26
#    2 A     L           30
#    3 A     L           25
#    4 A     L           70
#    5 A     L           52
#    6 A     L           51
#    7 A     L           26
#    8 A     L           67
#    9 A     M           18
#    10 A     M           29
#    # ... with 39 more rows
## Do not modify this line!



# 3. Use `count` to count the number of rows for each combination of (`wool`,`tension`).
#    Save the result dataframe into `t2` which should include 6 rows and 3 columns: `wool`, `tension` and `n`
t2<-warpbreaks%>%count_(vars=c('wool','tension'))


count_()#    To check your solution, it should print to:
#    # A tibble: 6 x 3
#     wool  tension     n
#     <chr> <chr>   <int>
#    1 A     H           8
#    2 A     L           8
#    3 A     M           8
#    # ... with 3 more rows
## Do not modify this line!



# 4. Use `pivot_wider` to `t1` to tranform the column `tension` into multiple columns `L`, `M` and `H`,
#    fill in the values with the sum of `breaks` for each combination of (`wool`,`tension`).
#    Hint: you can use the argument `values_fn = list(breaks = sum)`.
#    Save the result dataframe into `t3`.
#    Your result should look like this:
#    # A tibble: 2 x 4
#     wool      L     M     H
#     <chr> <dbl> <dbl> <dbl>
#    1 A       347   195   197
#    # ... with 1 more rows
## Do not modify this line!



# 5. Use `pivot_longer` to transfomr your `t3` into a tibble of 6 rows with columns `wool`, `tension`
#    and `sum_of_breaks`. Save your result into `t4` which includes 6 rows and 3 columns.
#    To check your solution, it should print to:
#    # A tibble: 6 x 3
#     wool  tension sum_of_breaks
#     <chr> <chr>           <dbl>
#    1 A     L                 347
#    2 A     M                 195
#    3 A     H                 197
#    # ... with 3 more rows
…
# 2. Let's take a look at the `billboard` data, we notice that there're 79 columns in total
#    and 76 columns to represent the rankings of each week.
#    Put the week name into one column called `week` and store the ranking
#    into another column called `rank`, keep the first three column names, save the new tibble
#    dataframe into `t1`, which will have 24,092 rows and 5 columns.

billboard
t1<-billboard%>%pivot_longer(cols=starts_with("wk"),names_to = "week",values_to = "rank")

#    Hint: you can use `pivot_longer` and `starts_with`.
#    To check your solution, it should print to:
#    # A tibble: 24,092 x 5
#      artist track                   date.entered week   rank
#      <chr>  <chr>                   <date>       <chr> <dbl>
#    1 2 Pac  Baby Don't Cry (Keep... 2000-02-26   wk1      87
#    2 2 Pac  Baby Don't Cry (Keep... 2000-02-26   wk2      82
#    3 2 Pac  Baby Don't Cry (Keep... 2000-02-26   wk3      72
#    4 2 Pac  Baby Don't Cry (Keep... 2000-02-26   wk4      77
#    5 2 Pac  Baby Don't Cry (Keep... 2000-02-26   wk5      87
#    6 2 Pac  Baby Don't Cry (Keep... 2000-02-26   wk6      94
#    7 2 Pac  Baby Don't Cry (Keep... 2000-02-26   wk7      99
#    8 2 Pac  Baby Don't Cry (Keep... 2000-02-26   wk8      NA
#    9 2 Pac  Baby Don't Cry (Keep... 2000-02-26   wk9      NA
#    10 2 Pac  Baby Don't Cry (Keep... 2000-02-26   wk10     NA
#    # ... with 24,082 more rows
…
# 3. We can notice that in `t1`,
#    1. The rank includes a lot of `NA` values,
#    2. The `wk` in front of each `week` is redundant.
#    So now do the same thing as the previous question, but this time drop the `NA` values and
#    change `wk<number>` to `<number>` for the `week` column as well.
#    Hint: to do so, you can start from `billboard` dataset and use `pivot_longer` along with the
#    `names_prefix` and `values_drop_na` arguments.
#    Save your result into `t2`.
t2<-billboard%>%pivot_longer(cols = starts_with("wk"),names_to = "week",names_prefix = "wk",values_to="rank", values_drop_na = TRUE)

#    Your new `t2` should have 5307 rows and 5 columns.
#    To check your solution, it should print to:
#    # A tibble: 5,307 x 5
#       artist  track                   date.entered week   rank
#       <chr>   <chr>                   <date>       <chr> <dbl>
#    1 2 Pac   Baby Don't Cry (Keep... 2000-02-26   1        87
#    2 2 Pac   Baby Don't Cry (Keep... 2000-02-26   2        82
#    3 2 Pac   Baby Don't Cry (Keep... 2000-02-26   3        72
#    4 2 Pac   Baby Don't Cry (Keep... 2000-02-26   4        77
#    5 2 Pac   Baby Don't Cry (Keep... 2000-02-26   5        87
#    6 2 Pac   Baby Don't Cry (Keep... 2000-02-26   6        94
#    7 2 Pac   Baby Don't Cry (Keep... 2000-02-26   7        99
#    8 2Ge+her The Hardest Part Of ... 2000-09-02   1        91
#    9 2Ge+her The Hardest Part Of ... 2000-09-02   2        87
#    10 2Ge+her The Hardest Part Of ... 2000-09-02   3        92
#    # ... with 5,297 more rows
…
t2_rank<-t2%>%mutate("rank_increase"=-rank+lag(rank))%>%filter(week!=1)%>%group_by(artist,track,date.entered)%>%summarise("highest_rank_increase"=max(rank_increase,na.rm=TRUE))


#    To do that, you can use:
#    - `mutate` and `lag` to calculate the rank difference.
#    - `filter` to filter out the information for week 1
#    (because week 1 is the first week for which the song has a rank thus there is no rank increase).
#    - `summarize`and `group_by` to find out the maximum of rank difference.
#    Save your answer into `t2_rank`, which should include 313 rows and 4 columns:
#    `artist`, `track`, `date.entered` and `highest_rank_increase`.
#    To check your solution, it should print to:
#    # A tibble: 313 x 4
#    # Groups:   artist, track [313]
#    artist         track                   date.entered highest_rank_increase
#    <chr>          <chr>                   <date>                       <dbl>
#    1 2 Pac          Baby Don't Cry (Keep... 2000-02-26                      10
#    2 2Ge+her        The Hardest Part Of ... 2000-09-02                       4
#    3 3 Doors Down   Kryptonite              2000-04-08                      11
#    4 3 Doors Down   Loser                   2000-10-21                      10
#    5 504 Boyz       Wobble Wobble           2000-04-15                      23
#    6 98^0           Give Me Just One Nig... 2000-08-19                      17
#    7 A*Teens        Dancing Queen           2000-07-08                       1
#    8 Aaliyah        I Don't Wanna           2000-01-29                      22
#    9 Aaliyah        Try Again               2000-03-18                      15
#    10 Adams, Yolanda Open My Heart           2000-08-26                       8
#    ... with 303 more rows
## Do not modify this line!



# 5. We want to have `year`, `month` and `date` information seperately.
#    We can use `seperate` function to seperate  `2000-02-26` of `date.entered` into `year` :`2000`,
#    `month`: `02`, and `date`: `26`.
#    Save your result into `t3`.
t3<-t2%>%separate(date.entered,into=c('year','month','date'))

#    Your new dataframe should not have `data.entered` column and should have 5307 rows and seven columns in total:
#    `artist`, `track`, `year`, `month`, `date`, `week` and `rank`.
#    To check your solution, it should print to:
#    # A tibble: 5,307 x 7
#       artist  track                   year  month date  week   rank
#       <chr>   <chr>                   <chr> <chr> <chr> <chr> <dbl>
#    1 2 Pac   Baby Don't Cry (Keep... 2000  02    26    1        87
#    2 2 Pac   Baby Don't Cry (Keep... 2000  02    26    2        82
#    3 2 Pac   Baby Don't Cry (Keep... 2000  02    26    3        72
#    4 2 Pac   Baby Don't Cry (Keep... 2000  02    26    4        77
#    5 2 Pac   Baby Don't Cry (Keep... 2000  02    26    5        87
#    6 2 Pac   Baby Don't Cry (Keep... 2000  02    26    6        94
#    7 2 Pac   Baby Don't Cry (Keep... 2000  02    26    7        99
#    8 2Ge+her The Hardest Part Of ... 2000  09    02    1        91
#    9 2Ge+her The Hardest Part Of ... 2000  09    02    2        87
#    10 2Ge+her The Hardest Part Of ... 2000  09    02    3        92
#    # ... with 5,297 more rows
## Do not modify this line!



# 6. Use `group_by` to group `t3` by `artist`, `track` and `month`.
#    Use `summarize` to add another column called `highest_rank`,
#    which represent the highest rank in year 2000 for each song.
#    Save your result into `t4` which will have 317 rows and 4 columns.

t4<-t3%>%group_by(artist,track,month)%>%summarize(highest_rank=min(rank))

#    To check your solution, it should print to:
#    # A tibble: 317 x 4
#    # Groups:   artist, track [317]
#     artist         track                   month highest_rank
#     <chr>          <chr>                   <chr>        <dbl>
#    1 2 Pac          Baby Don't Cry (Keep... 02              72
#    2 2Ge+her        The Hardest Part Of ... 09              87
#    3 3 Doors Down   Kryptonite              04               3
#    4 3 Doors Down   Loser                   10              55
#    5 504 Boyz       Wobble Wobble           04              17
#    6 98^0           Give Me Just One Nig... 08               2
#    7 A*Teens        Dancing Queen           07              95
#    8 Aaliyah        I Don't Wanna           01              35
#    9 Aaliyah        Try Again               03               1
#    10 Adams, Yolanda Open My Heart           08              57
#    # ... with 307 more rows
…
